%YAML 1.1
%TAG !u! tag:unity3d.com,2011:
--- !u!221 &22100000
AnimatorOverrideController:
  m_ObjectHideFlags: 0
  m_CorrespondingSourceObject: {fileID: 0}
  m_PrefabInstance: {fileID: 0}
  m_PrefabAsset: {fileID: 0}
  m_Name: Enemy04AnimationController
  m_Controller: {fileID: 9100000, guid: 4210c51452a4643ba994a99b18c90ccb, type: 2}
  m_Clips:
  - m_OriginalClip: {fileID: 7400000, guid: ba39de8977e0145749fd10af80d3b83e, type: 2}
    m_OverrideClip: {fileID: 7400000, guid: 349deff4c2c2f410a9bf1c672f8a6c12, type: 2}
  - m_OriginalClip: {fileID: 7400000, guid: 2cb6bf130bf294b9c8824e5f2f5dc489, type: 2}
    m_OverrideClip: {fileID: 7400000, guid: f851da4cf7bc8403b808cd37df93e3c9, type: 2}
  - m_OriginalClip: {fileID: 7400000, guid: d30a972018db34e969e666ab7a0c6638, type: 2}
    m_OverrideClip: {fileID: 7400000, guid: c32bd70cd8e774a82b0a218ecb6b4559, type: 2}
